{
    "sourceFile": "ApiClient/Services/ClientService.cs",
    "activeCommit": 0,
    "commits": [
        {
            "activePatchIndex": 2,
            "patches": [
                {
                    "date": 1654744505806,
                    "content": "Index: \n===================================================================\n--- \n+++ \n"
                },
                {
                    "date": 1654744529348,
                    "content": "Index: \n===================================================================\n--- \n+++ \n@@ -2,5 +2,25 @@\n \n using MongoDB.Driver;\n using Microsoft.Extensions.Options;\n \n-namespace ApiClient.Services;\n\\ No newline at end of file\n+namespace ApiClient.Services;\n+\n+public class ClientService\n+{\n+\n+    private readonly IMongoCollection<Client> _clientCollection;\n+\n+    public ClientService(IOptions<ClientDBSettings> mongoDBSettings)\n+    {\n+        MongoClient client = new MongoClient(mongoDBSettings.Value.ConnectionURI);\n+        IMongoDatabase database = client.GetDatabase(mongoDBSettings.Value.DatabaseName);\n+        _clientCollection = database.GetCollection<Client>(mongoDBSettings.Value.CollectionName);\n+    }\n+\n+    public async Task<List<Client>> GetAsync() => await _clientCollection.Find(_ => true).ToListAsync();\n+    public async Task<Client?> GetAsync(string id) => await _clientCollection.Find(x => x._id.ToString() == id).FirstOrDefaultAsync();\n+    public async Task CreateAsync(Client neweClient) => await _clientCollection.InsertOneAsync(neweClient);\n+    public async Task UpdateAsync(string id, Client updateClient) => await _clientCollection.ReplaceOneAsync(x => x._id.ToString() == id, updateClient);\n+    public async Task DeleteAsync(string id) => await _clientCollection.DeleteOneAsync(x => x._id.ToString() == id);\n+\n+}\n\\ No newline at end of file\n"
                },
                {
                    "date": 1654744547547,
                    "content": "Index: \n===================================================================\n--- \n+++ \n@@ -1,8 +1,9 @@\n \n \n using MongoDB.Driver;\n using Microsoft.Extensions.Options;\n+using ApiClient.Models;\n \n namespace ApiClient.Services;\n \n public class ClientService\n"
                }
            ],
            "date": 1654744505806,
            "name": "Commit-0",
            "content": "\n\nusing MongoDB.Driver;\nusing Microsoft.Extensions.Options;\n\nnamespace ApiClient.Services;"
        }
    ]
}