{
    "sourceFile": "ApiClient/Services/ClientsService.cs",
    "activeCommit": 0,
    "commits": [
        {
            "activePatchIndex": 25,
            "patches": [
                {
                    "date": 1654744629601,
                    "content": "Index: \n===================================================================\n--- \n+++ \n"
                },
                {
                    "date": 1654745301180,
                    "content": "Index: \n===================================================================\n--- \n+++ \n@@ -10,9 +10,9 @@\n {\n \n     private readonly IMongoCollection<Client> _clientCollection;\n \n-    public ClientService(IOptions<ClientDBSettings> mongoDBSettings)\n+    public ClientsService(IOptions<ClientDBSettings> mongoDBSettings)\n     {\n         MongoClient client = new MongoClient(mongoDBSettings.Value.ConnectionURI);\n         IMongoDatabase database = client.GetDatabase(mongoDBSettings.Value.DatabaseName);\n         _clientCollection = database.GetCollection<Client>(mongoDBSettings.Value.CollectionName);\n"
                },
                {
                    "date": 1654746773555,
                    "content": "Index: \n===================================================================\n--- \n+++ \n@@ -12,9 +12,9 @@\n     private readonly IMongoCollection<Client> _clientCollection;\n \n     public ClientsService(IOptions<ClientDBSettings> mongoDBSettings)\n     {\n-        MongoClient client = new MongoClient(mongoDBSettings.Value.ConnectionURI);\n+        MongoClient client = new MongoClient(mongoDBSettings.Value.ConnectionString);\n         IMongoDatabase database = client.GetDatabase(mongoDBSettings.Value.DatabaseName);\n         _clientCollection = database.GetCollection<Client>(mongoDBSettings.Value.CollectionName);\n     }\n \n"
                },
                {
                    "date": 1654864218641,
                    "content": "Index: \n===================================================================\n--- \n+++ \n@@ -18,9 +18,9 @@\n         _clientCollection = database.GetCollection<Client>(mongoDBSettings.Value.CollectionName);\n     }\n \n     public async Task<List<Client>> GetAsync() => await _clientCollection.Find(_ => true).ToListAsync();\n-    public async Task<Client?> GetAsync(string id) => await _clientCollection.Find(x => x._id.ToString() == id).FirstOrDefaultAsync();\n+    public async Task<Client?> GetAsync(string id) => await _clientCollection.Find(x => x._id ==  ObjectiId(id)).FirstOrDefaultAsync();\n     public async Task CreateAsync(Client neweClient) => await _clientCollection.InsertOneAsync(neweClient);\n     public async Task UpdateAsync(string id, Client updateClient) => await _clientCollection.ReplaceOneAsync(x => x._id.ToString() == id, updateClient);\n     public async Task DeleteAsync(string id) => await _clientCollection.DeleteOneAsync(x => x._id.ToString() == id);\n \n"
                },
                {
                    "date": 1654864229768,
                    "content": "Index: \n===================================================================\n--- \n+++ \n@@ -18,9 +18,9 @@\n         _clientCollection = database.GetCollection<Client>(mongoDBSettings.Value.CollectionName);\n     }\n \n     public async Task<List<Client>> GetAsync() => await _clientCollection.Find(_ => true).ToListAsync();\n-    public async Task<Client?> GetAsync(string id) => await _clientCollection.Find(x => x._id ==  ObjectiId(id)).FirstOrDefaultAsync();\n+    public async Task<Client?> GetAsync(string id) => await _clientCollection.Find(x => x._id == ObjectiId(id)).FirstOrDefaultAsync();\n     public async Task CreateAsync(Client neweClient) => await _clientCollection.InsertOneAsync(neweClient);\n     public async Task UpdateAsync(string id, Client updateClient) => await _clientCollection.ReplaceOneAsync(x => x._id.ToString() == id, updateClient);\n     public async Task DeleteAsync(string id) => await _clientCollection.DeleteOneAsync(x => x._id.ToString() == id);\n \n"
                },
                {
                    "date": 1654871681188,
                    "content": "Index: \n===================================================================\n--- \n+++ \n@@ -16,11 +16,11 @@\n         MongoClient client = new MongoClient(mongoDBSettings.Value.ConnectionString);\n         IMongoDatabase database = client.GetDatabase(mongoDBSettings.Value.DatabaseName);\n         _clientCollection = database.GetCollection<Client>(mongoDBSettings.Value.CollectionName);\n     }\n-\n+ß\n     public async Task<List<Client>> GetAsync() => await _clientCollection.Find(_ => true).ToListAsync();\n-    public async Task<Client?> GetAsync(string id) => await _clientCollection.Find(x => x._id == ObjectiId(id)).FirstOrDefaultAsync();\n+    public async Task<Client?> GetAsync(string id) => await _clientCollection.Find(x => x._id == id).FirstOrDefaultAsync();\n     public async Task CreateAsync(Client neweClient) => await _clientCollection.InsertOneAsync(neweClient);\n     public async Task UpdateAsync(string id, Client updateClient) => await _clientCollection.ReplaceOneAsync(x => x._id.ToString() == id, updateClient);\n     public async Task DeleteAsync(string id) => await _clientCollection.DeleteOneAsync(x => x._id.ToString() == id);\n \n"
                },
                {
                    "date": 1654871706200,
                    "content": "Index: \n===================================================================\n--- \n+++ \n@@ -20,8 +20,8 @@\n ß\n     public async Task<List<Client>> GetAsync() => await _clientCollection.Find(_ => true).ToListAsync();\n     public async Task<Client?> GetAsync(string id) => await _clientCollection.Find(x => x._id == id).FirstOrDefaultAsync();\n     public async Task CreateAsync(Client neweClient) => await _clientCollection.InsertOneAsync(neweClient);\n-    public async Task UpdateAsync(string id, Client updateClient) => await _clientCollection.ReplaceOneAsync(x => x._id.ToString() == id, updateClient);\n-    public async Task DeleteAsync(string id) => await _clientCollection.DeleteOneAsync(x => x._id.ToString() == id);\n+    public async Task UpdateAsync(string id, Client updateClient) => await _clientCollection.ReplaceOneAsync(x => x._id == id, updateClient);\n+    public async Task DeleteAsync(string id) => await _clientCollection.DeleteOneAsync(x => x._id == id);\n \n }\n\\ No newline at end of file\n"
                },
                {
                    "date": 1654871732461,
                    "content": "Index: \n===================================================================\n--- \n+++ \n@@ -16,9 +16,9 @@\n         MongoClient client = new MongoClient(mongoDBSettings.Value.ConnectionString);\n         IMongoDatabase database = client.GetDatabase(mongoDBSettings.Value.DatabaseName);\n         _clientCollection = database.GetCollection<Client>(mongoDBSettings.Value.CollectionName);\n     }\n-ß\n+\n     public async Task<List<Client>> GetAsync() => await _clientCollection.Find(_ => true).ToListAsync();\n     public async Task<Client?> GetAsync(string id) => await _clientCollection.Find(x => x._id == id).FirstOrDefaultAsync();\n     public async Task CreateAsync(Client neweClient) => await _clientCollection.InsertOneAsync(neweClient);\n     public async Task UpdateAsync(string id, Client updateClient) => await _clientCollection.ReplaceOneAsync(x => x._id == id, updateClient);\n"
                },
                {
                    "date": 1654871801388,
                    "content": "Index: \n===================================================================\n--- \n+++ \n@@ -18,10 +18,10 @@\n         _clientCollection = database.GetCollection<Client>(mongoDBSettings.Value.CollectionName);\n     }\n \n     public async Task<List<Client>> GetAsync() => await _clientCollection.Find(_ => true).ToListAsync();\n-    public async Task<Client?> GetAsync(string id) => await _clientCollection.Find(x => x._id == id).FirstOrDefaultAsync();\n+    public async Task<Client?> GetAsync(string id) => await _clientCollection.Find(x => x.Id == id).FirstOrDefaultAsync();\n     public async Task CreateAsync(Client neweClient) => await _clientCollection.InsertOneAsync(neweClient);\n-    public async Task UpdateAsync(string id, Client updateClient) => await _clientCollection.ReplaceOneAsync(x => x._id == id, updateClient);\n-    public async Task DeleteAsync(string id) => await _clientCollection.DeleteOneAsync(x => x._id == id);\n+    public async Task UpdateAsync(string id, Client updateClient) => await _clientCollection.ReplaceOneAsync(x => x.Id == id, updateClient);\n+    public async Task DeleteAsync(string id) => await _clientCollection.DeleteOneAsync(x => x.Id == id);\n \n }\n\\ No newline at end of file\n"
                },
                {
                    "date": 1654871881049,
                    "content": "Index: \n===================================================================\n--- \n+++ \n@@ -18,10 +18,10 @@\n         _clientCollection = database.GetCollection<Client>(mongoDBSettings.Value.CollectionName);\n     }\n \n     public async Task<List<Client>> GetAsync() => await _clientCollection.Find(_ => true).ToListAsync();\n-    public async Task<Client?> GetAsync(string id) => await _clientCollection.Find(x => x.Id == id).FirstOrDefaultAsync();\n+    public async Task<Client?> GetAsync(string id) => await _clientCollection.Find(x => x._id[\"$oid\"] == id).FirstOrDefaultAsync();\n     public async Task CreateAsync(Client neweClient) => await _clientCollection.InsertOneAsync(neweClient);\n-    public async Task UpdateAsync(string id, Client updateClient) => await _clientCollection.ReplaceOneAsync(x => x.Id == id, updateClient);\n-    public async Task DeleteAsync(string id) => await _clientCollection.DeleteOneAsync(x => x.Id == id);\n+    public async Task UpdateAsync(string id, Client updateClient) => await _clientCollection.ReplaceOneAsync(x => x._id[\"$oid\"] == id, updateClient);\n+    public async Task DeleteAsync(string id) => await _clientCollection.DeleteOneAsync(x => x._id[\"$oid\"] == id);\n \n }\n\\ No newline at end of file\n"
                },
                {
                    "date": 1654871955118,
                    "content": "Index: \n===================================================================\n--- \n+++ \n@@ -18,9 +18,9 @@\n         _clientCollection = database.GetCollection<Client>(mongoDBSettings.Value.CollectionName);\n     }\n \n     public async Task<List<Client>> GetAsync() => await _clientCollection.Find(_ => true).ToListAsync();\n-    public async Task<Client?> GetAsync(string id) => await _clientCollection.Find(x => x._id[\"$oid\"] == id).FirstOrDefaultAsync();\n+    public async Task<Client?> GetAsync(string id) => await _clientCollection.Find(x => x._id.oid == id).FirstOrDefaultAsync();\n     public async Task CreateAsync(Client neweClient) => await _clientCollection.InsertOneAsync(neweClient);\n     public async Task UpdateAsync(string id, Client updateClient) => await _clientCollection.ReplaceOneAsync(x => x._id[\"$oid\"] == id, updateClient);\n     public async Task DeleteAsync(string id) => await _clientCollection.DeleteOneAsync(x => x._id[\"$oid\"] == id);\n \n"
                },
                {
                    "date": 1654872095643,
                    "content": "Index: \n===================================================================\n--- \n+++ \n@@ -18,9 +18,9 @@\n         _clientCollection = database.GetCollection<Client>(mongoDBSettings.Value.CollectionName);\n     }\n \n     public async Task<List<Client>> GetAsync() => await _clientCollection.Find(_ => true).ToListAsync();\n-    public async Task<Client?> GetAsync(string id) => await _clientCollection.Find(x => x._id.oid == id).FirstOrDefaultAsync();\n+    public async Task<Client?> GetAsync(string id) => await _clientCollection.Find(x => x._id == id).FirstOrDefaultAsync();\n     public async Task CreateAsync(Client neweClient) => await _clientCollection.InsertOneAsync(neweClient);\n     public async Task UpdateAsync(string id, Client updateClient) => await _clientCollection.ReplaceOneAsync(x => x._id[\"$oid\"] == id, updateClient);\n     public async Task DeleteAsync(string id) => await _clientCollection.DeleteOneAsync(x => x._id[\"$oid\"] == id);\n \n"
                },
                {
                    "date": 1654872235253,
                    "content": "Index: \n===================================================================\n--- \n+++ \n@@ -18,9 +18,9 @@\n         _clientCollection = database.GetCollection<Client>(mongoDBSettings.Value.CollectionName);\n     }\n \n     public async Task<List<Client>> GetAsync() => await _clientCollection.Find(_ => true).ToListAsync();\n-    public async Task<Client?> GetAsync(string id) => await _clientCollection.Find(x => x._id == id).FirstOrDefaultAsync();\n+    public async Task<Client?> GetAsync(string id) => await _clientCollection.Find(x => string.Equals( x._id.ToString())).FirstOrDefaultAsync();\n     public async Task CreateAsync(Client neweClient) => await _clientCollection.InsertOneAsync(neweClient);\n     public async Task UpdateAsync(string id, Client updateClient) => await _clientCollection.ReplaceOneAsync(x => x._id[\"$oid\"] == id, updateClient);\n     public async Task DeleteAsync(string id) => await _clientCollection.DeleteOneAsync(x => x._id[\"$oid\"] == id);\n \n"
                },
                {
                    "date": 1654872313119,
                    "content": "Index: \n===================================================================\n--- \n+++ \n@@ -18,9 +18,9 @@\n         _clientCollection = database.GetCollection<Client>(mongoDBSettings.Value.CollectionName);\n     }\n \n     public async Task<List<Client>> GetAsync() => await _clientCollection.Find(_ => true).ToListAsync();\n-    public async Task<Client?> GetAsync(string id) => await _clientCollection.Find(x => string.Equals( x._id.ToString())).FirstOrDefaultAsync();\n+    public async Task<Client?> GetAsync(string id) => await _clientCollection.Find(x => string.Equals( x._id.ToString(), StringComparer.OrdinalIgnoreCase)).FirstOrDefaultAsync();\n     public async Task CreateAsync(Client neweClient) => await _clientCollection.InsertOneAsync(neweClient);\n     public async Task UpdateAsync(string id, Client updateClient) => await _clientCollection.ReplaceOneAsync(x => x._id[\"$oid\"] == id, updateClient);\n     public async Task DeleteAsync(string id) => await _clientCollection.DeleteOneAsync(x => x._id[\"$oid\"] == id);\n \n"
                },
                {
                    "date": 1654872345702,
                    "content": "Index: \n===================================================================\n--- \n+++ \n@@ -20,8 +20,8 @@\n \n     public async Task<List<Client>> GetAsync() => await _clientCollection.Find(_ => true).ToListAsync();\n     public async Task<Client?> GetAsync(string id) => await _clientCollection.Find(x => string.Equals( x._id.ToString(), StringComparer.OrdinalIgnoreCase)).FirstOrDefaultAsync();\n     public async Task CreateAsync(Client neweClient) => await _clientCollection.InsertOneAsync(neweClient);\n-    public async Task UpdateAsync(string id, Client updateClient) => await _clientCollection.ReplaceOneAsync(x => x._id[\"$oid\"] == id, updateClient);\n-    public async Task DeleteAsync(string id) => await _clientCollection.DeleteOneAsync(x => x._id[\"$oid\"] == id);\n+    public async Task UpdateAsync(string id, Client updateClient) => await _clientCollection.ReplaceOneAsync(x => string.Equals( x._id.ToString(), StringComparer.OrdinalIgnoreCase), updateClient);\n+    public async Task DeleteAsync(string id) => await _clientCollection.DeleteOneAsync(x => string.Equals( x._id.ToString(), StringComparer.OrdinalIgnoreCase) == id);\n \n }\n\\ No newline at end of file\n"
                },
                {
                    "date": 1654872362847,
                    "content": "Index: \n===================================================================\n--- \n+++ \n@@ -21,7 +21,7 @@\n     public async Task<List<Client>> GetAsync() => await _clientCollection.Find(_ => true).ToListAsync();\n     public async Task<Client?> GetAsync(string id) => await _clientCollection.Find(x => string.Equals( x._id.ToString(), StringComparer.OrdinalIgnoreCase)).FirstOrDefaultAsync();\n     public async Task CreateAsync(Client neweClient) => await _clientCollection.InsertOneAsync(neweClient);\n     public async Task UpdateAsync(string id, Client updateClient) => await _clientCollection.ReplaceOneAsync(x => string.Equals( x._id.ToString(), StringComparer.OrdinalIgnoreCase), updateClient);\n-    public async Task DeleteAsync(string id) => await _clientCollection.DeleteOneAsync(x => string.Equals( x._id.ToString(), StringComparer.OrdinalIgnoreCase) == id);\n+    public async Task DeleteAsync(string id) => await _clientCollection.DeleteOneAsync(x => string.Equals( x._id.ToString(), StringComparer.OrdinalIgnoreCase));\n \n }\n\\ No newline at end of file\n"
                },
                {
                    "date": 1654872423002,
                    "content": "Index: \n===================================================================\n--- \n+++ \n@@ -18,9 +18,9 @@\n         _clientCollection = database.GetCollection<Client>(mongoDBSettings.Value.CollectionName);\n     }\n \n     public async Task<List<Client>> GetAsync() => await _clientCollection.Find(_ => true).ToListAsync();\n-    public async Task<Client?> GetAsync(string id) => await _clientCollection.Find(x => string.Equals( x._id.ToString(), StringComparer.OrdinalIgnoreCase)).FirstOrDefaultAsync();\n+    public async Task<Client?> GetAsync(string id) => await _clientCollection.Find(x => string.Equals( x._id, StringComparer.OrdinalIgnoreCase)).FirstOrDefaultAsync();\n     public async Task CreateAsync(Client neweClient) => await _clientCollection.InsertOneAsync(neweClient);\n     public async Task UpdateAsync(string id, Client updateClient) => await _clientCollection.ReplaceOneAsync(x => string.Equals( x._id.ToString(), StringComparer.OrdinalIgnoreCase), updateClient);\n     public async Task DeleteAsync(string id) => await _clientCollection.DeleteOneAsync(x => string.Equals( x._id.ToString(), StringComparer.OrdinalIgnoreCase));\n \n"
                },
                {
                    "date": 1654872533564,
                    "content": "Index: \n===================================================================\n--- \n+++ \n@@ -2,8 +2,9 @@\n \n using MongoDB.Driver;\n using Microsoft.Extensions.Options;\n using ApiClient.Models;\n+using MongoDB.Bson.ObjectId;\n \n namespace ApiClient.Services;\n \n public class ClientsService\n@@ -18,10 +19,10 @@\n         _clientCollection = database.GetCollection<Client>(mongoDBSettings.Value.CollectionName);\n     }\n \n     public async Task<List<Client>> GetAsync() => await _clientCollection.Find(_ => true).ToListAsync();\n-    public async Task<Client?> GetAsync(string id) => await _clientCollection.Find(x => string.Equals( x._id, StringComparer.OrdinalIgnoreCase)).FirstOrDefaultAsync();\n+    public async Task<Client?> GetAsync(string id) => await _clientCollection.Find(x => string.Equals( x._id.ToString())).FirstOrDefaultAsync();\n     public async Task CreateAsync(Client neweClient) => await _clientCollection.InsertOneAsync(neweClient);\n-    public async Task UpdateAsync(string id, Client updateClient) => await _clientCollection.ReplaceOneAsync(x => string.Equals( x._id.ToString(), StringComparer.OrdinalIgnoreCase), updateClient);\n-    public async Task DeleteAsync(string id) => await _clientCollection.DeleteOneAsync(x => string.Equals( x._id.ToString(), StringComparer.OrdinalIgnoreCase));\n+    public async Task UpdateAsync(string id, Client updateClient) => await _clientCollection.ReplaceOneAsync(x => x._id[\"$oid\"] == id, updateClient);\n+    public async Task DeleteAsync(string id) => await _clientCollection.DeleteOneAsync(x => x._id[\"$oid\"] == id);\n \n }\n\\ No newline at end of file\n"
                },
                {
                    "date": 1654872607833,
                    "content": "Index: \n===================================================================\n--- \n+++ \n@@ -2,9 +2,8 @@\n \n using MongoDB.Driver;\n using Microsoft.Extensions.Options;\n using ApiClient.Models;\n-using MongoDB.Bson.ObjectId;\n \n namespace ApiClient.Services;\n \n public class ClientsService\n@@ -19,10 +18,10 @@\n         _clientCollection = database.GetCollection<Client>(mongoDBSettings.Value.CollectionName);\n     }\n \n     public async Task<List<Client>> GetAsync() => await _clientCollection.Find(_ => true).ToListAsync();\n-    public async Task<Client?> GetAsync(string id) => await _clientCollection.Find(x => string.Equals( x._id.ToString())).FirstOrDefaultAsync();\n+    public async Task<Client?> GetAsync(string id) => await _clientCollection.Find(x => x._id == id).FirstOrDefaultAsync();\n     public async Task CreateAsync(Client neweClient) => await _clientCollection.InsertOneAsync(neweClient);\n-    public async Task UpdateAsync(string id, Client updateClient) => await _clientCollection.ReplaceOneAsync(x => x._id[\"$oid\"] == id, updateClient);\n-    public async Task DeleteAsync(string id) => await _clientCollection.DeleteOneAsync(x => x._id[\"$oid\"] == id);\n+    public async Task UpdateAsync(string id, Client updateClient) => await _clientCollection.ReplaceOneAsync(x => x.Id == id, updateClient);\n+    public async Task DeleteAsync(string id) => await _clientCollection.DeleteOneAsync(x => x.Id == id);\n \n }\n\\ No newline at end of file\n"
                },
                {
                    "date": 1654872651716,
                    "content": "Index: \n===================================================================\n--- \n+++ \n@@ -1,8 +1,9 @@\n \n \n using MongoDB.Driver;\n using Microsoft.Extensions.Options;\n+using MongoDB.Bson;\n using ApiClient.Models;\n \n namespace ApiClient.Services;\n \n"
                },
                {
                    "date": 1654872817520,
                    "content": "Index: \n===================================================================\n--- \n+++ \n@@ -1,9 +1,9 @@\n \n \n using MongoDB.Driver;\n using Microsoft.Extensions.Options;\n-using MongoDB.Bson;\n+using MongoDB.Bson.ObjectId;\n using ApiClient.Models;\n \n namespace ApiClient.Services;\n \n@@ -19,9 +19,9 @@\n         _clientCollection = database.GetCollection<Client>(mongoDBSettings.Value.CollectionName);\n     }\n \n     public async Task<List<Client>> GetAsync() => await _clientCollection.Find(_ => true).ToListAsync();\n-    public async Task<Client?> GetAsync(string id) => await _clientCollection.Find(x => x._id == id).FirstOrDefaultAsync();\n+    public async Task<Client?> GetAsync(string id) => await _clientCollection.Find(x => ObjectId. x._id__to == id).FirstOrDefaultAsync();\n     public async Task CreateAsync(Client neweClient) => await _clientCollection.InsertOneAsync(neweClient);\n     public async Task UpdateAsync(string id, Client updateClient) => await _clientCollection.ReplaceOneAsync(x => x.Id == id, updateClient);\n     public async Task DeleteAsync(string id) => await _clientCollection.DeleteOneAsync(x => x.Id == id);\n \n"
                },
                {
                    "date": 1654872988568,
                    "content": "Index: \n===================================================================\n--- \n+++ \n@@ -19,9 +19,9 @@\n         _clientCollection = database.GetCollection<Client>(mongoDBSettings.Value.CollectionName);\n     }\n \n     public async Task<List<Client>> GetAsync() => await _clientCollection.Find(_ => true).ToListAsync();\n-    public async Task<Client?> GetAsync(string id) => await _clientCollection.Find(x => ObjectId. x._id__to == id).FirstOrDefaultAsync();\n+    public async Task<Client?> GetAsync(string id) => await _clientCollection.Find(x => ObjectId.Tostring(x._id)  == id).FirstOrDefaultAsync();\n     public async Task CreateAsync(Client neweClient) => await _clientCollection.InsertOneAsync(neweClient);\n     public async Task UpdateAsync(string id, Client updateClient) => await _clientCollection.ReplaceOneAsync(x => x.Id == id, updateClient);\n     public async Task DeleteAsync(string id) => await _clientCollection.DeleteOneAsync(x => x.Id == id);\n \n"
                },
                {
                    "date": 1654873019734,
                    "content": "Index: \n===================================================================\n--- \n+++ \n@@ -1,9 +1,9 @@\n \n \n using MongoDB.Driver;\n using Microsoft.Extensions.Options;\n-using MongoDB.Bson.ObjectId;\n+using MongoDB.Bson;\n using ApiClient.Models;\n \n namespace ApiClient.Services;\n \n"
                },
                {
                    "date": 1654873074858,
                    "content": "Index: \n===================================================================\n--- \n+++ \n@@ -19,9 +19,9 @@\n         _clientCollection = database.GetCollection<Client>(mongoDBSettings.Value.CollectionName);\n     }\n \n     public async Task<List<Client>> GetAsync() => await _clientCollection.Find(_ => true).ToListAsync();\n-    public async Task<Client?> GetAsync(string id) => await _clientCollection.Find(x => ObjectId.Tostring(x._id)  == id).FirstOrDefaultAsync();\n+    public async Task<Client?> GetAsync(string id) => await _clientCollection.Find(x => ObjectId.toString(x._id)  == id).FirstOrDefaultAsync();\n     public async Task CreateAsync(Client neweClient) => await _clientCollection.InsertOneAsync(neweClient);\n     public async Task UpdateAsync(string id, Client updateClient) => await _clientCollection.ReplaceOneAsync(x => x.Id == id, updateClient);\n     public async Task DeleteAsync(string id) => await _clientCollection.DeleteOneAsync(x => x.Id == id);\n \n"
                },
                {
                    "date": 1654873131499,
                    "content": "Index: \n===================================================================\n--- \n+++ \n@@ -19,9 +19,9 @@\n         _clientCollection = database.GetCollection<Client>(mongoDBSettings.Value.CollectionName);\n     }\n \n     public async Task<List<Client>> GetAsync() => await _clientCollection.Find(_ => true).ToListAsync();\n-    public async Task<Client?> GetAsync(string id) => await _clientCollection.Find(x => ObjectId.toString(x._id)  == id).FirstOrDefaultAsync();\n+    public async Task<Client?> GetAsync(string id) => await _clientCollection.Find(x => typeof x._id.toString()  == id).FirstOrDefaultAsync();\n     public async Task CreateAsync(Client neweClient) => await _clientCollection.InsertOneAsync(neweClient);\n     public async Task UpdateAsync(string id, Client updateClient) => await _clientCollection.ReplaceOneAsync(x => x.Id == id, updateClient);\n     public async Task DeleteAsync(string id) => await _clientCollection.DeleteOneAsync(x => x.Id == id);\n \n"
                },
                {
                    "date": 1654873286845,
                    "content": "Index: \n===================================================================\n--- \n+++ \n@@ -1,9 +1,8 @@\n \n \n using MongoDB.Driver;\n using Microsoft.Extensions.Options;\n-using MongoDB.Bson;\n using ApiClient.Models;\n \n namespace ApiClient.Services;\n \n@@ -19,9 +18,9 @@\n         _clientCollection = database.GetCollection<Client>(mongoDBSettings.Value.CollectionName);\n     }\n \n     public async Task<List<Client>> GetAsync() => await _clientCollection.Find(_ => true).ToListAsync();\n-    public async Task<Client?> GetAsync(string id) => await _clientCollection.Find(x => typeof x._id.toString()  == id).FirstOrDefaultAsync();\n+    public async Task<Client?> GetAsync(string id) => await _clientCollection.Find(x => x.Id == id).FirstOrDefaultAsync();\n     public async Task CreateAsync(Client neweClient) => await _clientCollection.InsertOneAsync(neweClient);\n     public async Task UpdateAsync(string id, Client updateClient) => await _clientCollection.ReplaceOneAsync(x => x.Id == id, updateClient);\n     public async Task DeleteAsync(string id) => await _clientCollection.DeleteOneAsync(x => x.Id == id);\n \n"
                }
            ],
            "date": 1654744629601,
            "name": "Commit-0",
            "content": "\n\nusing MongoDB.Driver;\nusing Microsoft.Extensions.Options;\nusing ApiClient.Models;\n\nnamespace ApiClient.Services;\n\npublic class ClientsService\n{\n\n    private readonly IMongoCollection<Client> _clientCollection;\n\n    public ClientService(IOptions<ClientDBSettings> mongoDBSettings)\n    {\n        MongoClient client = new MongoClient(mongoDBSettings.Value.ConnectionURI);\n        IMongoDatabase database = client.GetDatabase(mongoDBSettings.Value.DatabaseName);\n        _clientCollection = database.GetCollection<Client>(mongoDBSettings.Value.CollectionName);\n    }\n\n    public async Task<List<Client>> GetAsync() => await _clientCollection.Find(_ => true).ToListAsync();\n    public async Task<Client?> GetAsync(string id) => await _clientCollection.Find(x => x._id.ToString() == id).FirstOrDefaultAsync();\n    public async Task CreateAsync(Client neweClient) => await _clientCollection.InsertOneAsync(neweClient);\n    public async Task UpdateAsync(string id, Client updateClient) => await _clientCollection.ReplaceOneAsync(x => x._id.ToString() == id, updateClient);\n    public async Task DeleteAsync(string id) => await _clientCollection.DeleteOneAsync(x => x._id.ToString() == id);\n\n}"
        }
    ]
}